^C:\USERS\JMSHIM\SOURCE\REPOS\MFCAPPLICATION2\MFCAPPLICATION2\PCH.CPP
C:\USERS\JMSHIM\SOURCE\REPOS\MFCAPPLICATION2\MFCAPPLICATION2\DEBUG\MFCAPPLICATION2.PCH
C:\USERS\JMSHIM\SOURCE\REPOS\MFCAPPLICATION2\MFCAPPLICATION2\DEBUG\VC143.PDB
C:\USERS\JMSHIM\SOURCE\REPOS\MFCAPPLICATION2\MFCAPPLICATION2\DEBUG\VC143.IDB
C:\USERS\JMSHIM\SOURCE\REPOS\MFCAPPLICATION2\MFCAPPLICATION2\DEBUG\PCH.OBJ
^C:\USERS\JMSHIM\SOURCE\REPOS\MFCAPPLICATION2\MFCAPPLICATION2\MFCAPPLICATION2.CPP|C:\USERS\JMSHIM\SOURCE\REPOS\MFCAPPLICATION2\MFCAPPLICATION2\MFCAPPLICATION2DLG.CPP
C:\USERS\JMSHIM\SOURCE\REPOS\MFCAPPLICATION2\MFCAPPLICATION2\DEBUG\VC143.PDB
C:\USERS\JMSHIM\SOURCE\REPOS\MFCAPPLICATION2\MFCAPPLICATION2\DEBUG\VC143.IDB
C:\USERS\JMSHIM\SOURCE\REPOS\MFCAPPLICATION2\MFCAPPLICATION2\DEBUG\MFCAPPLICATION2DLG.OBJ
C:\USERS\JMSHIM\SOURCE\REPOS\MFCAPPLICATION2\MFCAPPLICATION2\DEBUG\MFCAPPLICATION2.OBJ
^C:\USERS\JMSHIM\SOURCE\REPOS\MFCAPPLICATION2\MFCAPPLICATION2\MFCAPPLICATION2.CPP
C:\USERS\JMSHIM\SOURCE\REPOS\MFCAPPLICATION2\MFCAPPLICATION2\DEBUG\VC143.PDB
^C:\USERS\JMSHIM\SOURCE\REPOS\MFCAPPLICATION2\MFCAPPLICATION2\MFCAPPLICATION2DLG.CPP
C:\USERS\JMSHIM\SOURCE\REPOS\MFCAPPLICATION2\MFCAPPLICATION2\DEBUG\VC143.PDB
