^C:\USERS\JMSHIM\SOURCE\REPOS\MFCAPPLICATION2\MFCAPPLICATION2\DEBUG\MFCAPPLICATION2.OBJ|C:\USERS\JMSHIM\SOURCE\REPOS\MFCAPPLICATION2\MFCAPPLICATION2\DEBUG\MFCAPPLICATION2.RES|C:\USERS\JMSHIM\SOURCE\REPOS\MFCAPPLICATION2\MFCAPPLICATION2\DEBUG\MFCAPPLICATION2DLG.OBJ|C:\USERS\JMSHIM\SOURCE\REPOS\MFCAPPLICATION2\MFCAPPLICATION2\DEBUG\PCH.OBJ
/OUT:"C:\USERS\JMSHIM\SOURCE\REPOS\MFCAPPLICATION2\DEBUG\MFCAPPLICATION2.EXE" /INCREMENTAL /ILK:"DEBUG\MFCAPPLICATION2.ILK" /NOLOGO /MANIFEST /MANIFESTUAC:"level='asInvoker' uiAccess='false'" /manifest:embed /manifestinput:"C:\PROGRAM FILES\MICROSOFT VISUAL STUDIO\2022\COMMUNITY\VC\TOOLS\MSVC\14.32.31326\INCLUDE\MANIFEST\DPIAWARE.MANIFEST" /DEBUG:FULL /PDB:"C:\USERS\JMSHIM\SOURCE\REPOS\MFCAPPLICATION2\DEBUG\MFCAPPLICATION2.PDB" /SUBSYSTEM:WINDOWS /TLBID:1 /ENTRY:"wWinMainCRTStartup" /DYNAMICBASE /NXCOMPAT /IMPLIB:"C:\USERS\JMSHIM\SOURCE\REPOS\MFCAPPLICATION2\DEBUG\MFCAPPLICATION2.LIB" /MACHINE:X86 DEBUG\MFCAPPLICATION2.RES
DEBUG\MFCAPPLICATION2.OBJ
DEBUG\MFCAPPLICATION2DLG.OBJ
DEBUG\PCH.OBJ
